lon,lat
-71.2697524,46.839983
-71.3288084,46.7805837
-71.2620695,46.7298864
-72.5711179,46.3303807
-72.5152822,45.9079635
-71.9615937,45.42272940000001
-71.0836843,48.3835354
-73.50507189999999,45.7216896
-73.4056513,45.5777388
-73.3817923,45.5010361
-73.4322349,45.5051873
-73.5853909,45.6092107
-73.4797174,45.4341373
-73.5536417,45.4857178
-73.66021289999999,45.5364736
-73.5177539,45.3706501
-73.75720439999999,45.5740972
-73.8513583,45.6314274
-74.0186298,45.7649531
-73.81789309999999,45.4693946
-74.0374971,45.4147461
-66.6632806,45.9270785
-75.6034548,45.4349421
-75.6972849,45.4756531
-75.72242609999999,45.3377624
-75.7843783,45.2684597
-75.91311639999999,45.3026258
-66.0280258,45.3057555
-64.77886509999999,46.128823
-76.56039249999999,44.26018
