lon,lat
-71.2272852,46.8261206
-71.23106349999999,46.8043325
-71.17456829999999,46.7950855
-71.25910429999999,46.8090408
-71.24717319999999,46.7865302
-71.2473091,46.8436447
-71.1961401,46.7739341
-71.1884753,46.8622006
-71.2776098,46.8397449
-71.2993801,46.81217119999999
-71.2892652,46.7805145
-71.25459680000002,46.872769
-71.1911148,46.8907082
-71.3330074,46.8180805
-71.3083546,46.7644581
-71.3271611,46.8422365
-71.2044868,46.7252696
-71.2674399,46.7309518
-71.1418384,46.8938578
-71.2908702,46.8867461
-71.3338411,46.7619546
-71.3661102,46.844645
-71.2897986,46.7094863
-71.3722804,46.7633427
-71.3152547,46.9304822
-71.07756599999999,46.9195096
-71.3671974,46.9024373
-71.4109613,46.8571949
-71.0718645,46.6992196
-71.438104,46.7493363
-71.2023476,46.99345839999999
-71.36919639999999,47.0007436
-71.2045377,46.59344919999999
-70.9814176,46.6363545
-71.6096539,46.841219100000004
-71.514629,46.6133392
-70.91547229999999,47.0285495
-71.6902398,46.7448381
-71.0297653,46.450593
-70.567591,46.97939170000001
