lon,lat
-73.58879379999999,45.5671541
-73.5514797,45.6045902
-73.5750291,45.5103272
-73.5630262,45.5848547
-73.5846584,45.5329753
-73.5708294,45.5373305
-73.5683256,45.463013
-73.5654928,45.5312557
-73.6198663,45.4949411
-73.61310399999999,45.5399496
-73.60403769999999,45.5453854
-73.53366609999999,45.5519757
-73.5116607,45.5942772
-73.5429453,45.5474995
-73.6368367,45.5583407
-73.67469000000001,45.5198585
-73.5069073,45.669284
-73.5642154,45.4932387
-73.6352162,45.429573
-73.54278359999999,45.5821704
-73.5513837,45.52413139999999
-73.6547385,45.5668008
-73.50268059999999,45.6414221
-73.5641308,45.5517044
-73.6287153,45.4848375
-73.6398555,45.46655210000001
-73.59067329999999,45.5299652
-73.5848121,45.6069669
-73.8122858,45.5269657
-73.8154734,45.4459849
-73.86554339999999,45.4615816
-73.8642844,45.5484142
-73.8490111,45.432242
-73.723959,45.56220099999999
-73.87688969999999,45.5756472
-73.7872927,45.5879352
-73.9246197,45.53725439999999
-73.67469000000001,45.5198585
-73.6198663,45.4949411
-73.6242443,45.52022969999999
-73.6287153,45.4848375
-73.67469000000001,45.5198585
-73.6026708,45.4790359
-73.6398555,45.46655210000001
-73.61310399999999,45.5399496
-73.59067329999999,45.5299652
-73.5750291,45.5103272
-73.60403769999999,45.5453854
-73.50268059999999,45.6414221
-73.5069073,45.669284
-73.5116607,45.5942772
-73.5514797,45.6045902
-73.4502723,45.6132524
-73.4453802,45.6013066
-73.54278359999999,45.5821704
-73.5848121,45.6069669
-73.5630262,45.5848547
-73.53366609999999,45.5519757
