lon,lat
-71.33932759999999,46.85666699999999
-71.3508571,46.9101974
-71.1704756,46.8873559
-71.3274917,46.8758438
-71.2267871,46.8046781
-71.242154,46.8045252
-71.3182787,46.7699665
-71.1957894,46.8718917
-71.3009993,46.7811331
-71.2708986,46.865026
-71.21784339999999,46.8164585
-71.21524149999999,46.8657542
-71.2795912,46.7726269
-71.42973359999999,46.8633591
-71.28228589999999,46.7867359
-71.2894152,46.8163607
