lon,lat
-70.625536,46.4838215
-71.7765639,48.4923538
-73.6260599,45.5414054
-72.7098639,45.5644234
-73.9504097,45.4053835
-74.6342739,45.9740307
-73.2564831,45.2791876
-75.5986439,45.915171
-70.8497289,48.31765360000001
-72.3927995,45.0550424
-68.4706861,48.3878711
-74.0031714,46.1119098
-72.9143714,46.0039744
-69.6248336,47.6830722
-71.13215799999999,46.5010811
-70.1470748,46.6543983
-70.2140232,48.2302617
-71.0743001,48.42019759999999
-70.6752621,46.3577345
-67.2232894,48.3513063
-71.52331269999999,48.6730027
-69.15353449999999,47.453981
-66.31071690000002,48.1355847
-70.2153749,47.1820374
-72.1522677,46.66260399999999
-69.5298712,47.823783
-71.01811230000001,46.9691287
-71.0603704,46.4079724
-64.32808899999999,48.4272292
-68.7080081,48.3726558
-64.969539,48.1800964
-67.43626640000001,48.4593533
-68.34226939999999,48.52850189999999
-64.3527093,49.8177838
-67.698262700000015,48.7872438
-73.1527284,45.0839438
-73.2240478,45.9582106
-75.6193957,45.5996804
-71.6947575,48.6310578
-72.56683799999999,45.650004
-72.77844139999999,47.441303
-70.98215830000001,46.559464
-68.8671002,48.2934046
-69.0210527,47.8970639
-75.9834387,45.6453615
-72.3347244,48.5925272
-71.22920959999999,46.6814797
-69.5340547,48.2499031
-71.26681789999999,46.7685071
-73.5431717,45.5728559
