
[
   "match",
  ["get", "name"],
["Saint-Jean-Baptiste"],
 "#FFFFB3", 
["Vieux-Québec"],
 "#FDB462", 
["Montcalm"],
 "#8DD3C7", 
["Saint-Sacrement"],
 "#FB8072", 
["Saint-Roch"],
 "#BEBADA", 
["Saint-Sauveur"],
 "#80B1D3", 
  "#000000" ]
